<svg xmlns="http://www.w3.org/2000/svg" width="8" height="14" viewBox="0 0 8 14">
    <path fill="#FFF" fill-rule="evenodd" d="M5.625 7.066c-.107.068-.218.114-.296.192C3.679 8.903 2.034 10.553.384 12.2c-.28.277-.44.585-.363.987a.994.994 0 0 0 1.608.587c.073-.059.139-.129.205-.195l5.74-5.744c.568-.568.568-1.099 0-1.664C5.649 4.24 3.723 2.31 1.795.383 1.386-.024.917-.11.492.142-.066.472-.17 1.215.288 1.699c.369.39.757.762 1.138 1.143l3.94 3.944c.066.065.125.135.259.28"/>
</svg>
